<?xml version="1.0" standalone="no"?>
<!DOCTYPE svg PUBLIC "-//W3C//DTD SVG 1.1//EN" "http://www.w3.org/Graphics/SVG/1.1/DTD/svg11.dtd">
<svg xmlns="http://www.w3.org/2000/svg">
<metadata>Copyright (C) 2015 by original authors @ fontello.com</metadata>
<defs>
<font id="icons" horiz-adv-x="1000" >
<font-face font-family="icons" font-weight="400" font-stretch="normal" units-per-em="1000" ascent="850" descent="-150" />
<missing-glyph horiz-adv-x="1000" />
<glyph glyph-name="menu" unicode="&#xe800;" d="m857 100v-71q0-15-10-25t-26-11h-785q-15 0-25 11t-11 25v71q0 15 11 25t25 11h785q15 0 26-11t10-25z m0 286v-72q0-14-10-25t-26-10h-785q-15 0-25 10t-11 25v72q0 14 11 25t25 10h785q15 0 26-10t10-25z m0 285v-71q0-15-10-25t-26-11h-785q-15 0-25 11t-11 25v71q0 15 11 26t25 10h785q15 0 26-10t10-26z" horiz-adv-x="857.1" />
<glyph glyph-name="facebook" unicode="&#xe801;" d="m535 843v-147h-87q-48 0-65-20t-17-60v-106h164l-22-165h-142v-424h-171v424h-142v165h142v122q0 104 58 161t155 57q82 0 127-7z" horiz-adv-x="571.4" />
<glyph glyph-name="twitter" unicode="&#xe802;" d="m904 622q-37-54-90-93 0-8 0-23 0-73-21-145t-64-139-103-117-144-82-181-30q-151 0-276 81 19-3 43-3 126 0 224 77-59 2-105 36t-64 89q19-2 34-2 24 0 48 6-63 13-104 62t-41 115v2q38-21 82-23-37 25-59 64t-22 86q0 49 25 91 68-83 164-133t208-55q-5 21-5 41 0 75 53 127t127 53q79 0 132-57 61 12 114 44-20-64-79-100 52 6 104 28z" horiz-adv-x="928.6" />
<glyph glyph-name="youtube" unicode="&#xe803;" d="m714 350q0 21-16 30l-286 179q-17 11-36 1-19-10-19-31v-358q0-21 19-31 9-4 17-4 11 0 19 5l286 179q16 9 16 30z m286 0q0-54-1-84t-4-76-13-82q-9-41-38-69t-70-32q-123-14-374-14t-374 14q-40 4-70 32t-39 69q-7 36-12 82t-4 76-1 84 1 84 4 76 13 82q9 41 38 69t70 32q123 14 374 14t374-14q40-4 70-32t39-69q8-36 12-82t4-76 1-84z" horiz-adv-x="1000" />
<glyph glyph-name="vimeo-squared" unicode="&#xe804;" d="m700 495q9 47-12 73-29 36-104 25-10-1-23-7t-32-17-36-27-33-39-25-51q44 4 63-9t15-55q-3-29-29-80-24-43-40-55-24-18-48 8-13 13-21 36t-11 40-5 47-5 40q-13 72-19 92-7 20-20 38t-28 23q-32 8-71-14-30-18-76-60t-69-56v-4q9-5 15-15t12-11q11-2 30 5t32 6 24-17q6-10 10-22t8-26 7-23q10-26 30-104 20-82 32-110 23-56 57-70 24-7 48-1t42 18q73 43 139 132 59 77 97 163t46 127z m157 123v-536q0-66-47-113t-114-48h-535q-67 0-114 48t-47 113v536q0 66 47 113t114 48h535q67 0 114-48t47-113z" horiz-adv-x="857.1" />
<glyph glyph-name="cancel" unicode="&#xe805;" d="m517 344l338-337-19-20-338 338-337-338-19 20 337 337-337 337 19 19 337-337 338 337 19-19-338-337z" horiz-adv-x="1000" />
<glyph glyph-name="vimeo" unicode="&#xe806;" d="m896 558q-32-186-171-351t-245-237q-42-28-81-17t-66 38-43 61q-16 32-78 239t-74 223q-16 12-38 5t-44-21l-20-14-36 50q18 20 46 52t100 89 124 67q30 6 53-7t36-35 23-60 15-70 12-75 13-67q14-54 21-80t17-54 18-39 18-11q40 0 126 166 42 76 6 124t-112 2q22 126 140 188 104 54 182 8 80-46 58-174z" horiz-adv-x="901" />
<glyph glyph-name="play" unicode="&#xe80c;" d="m504-111c-254 0-461 207-461 461 0 254 207 461 461 461s461-207 461-461c0-254-207-461-461-461z m0 852c-215 0-391-176-391-391 0-215 176-391 391-391s391 176 391 391c3 215-172 391-391 391z m-129-641l406 258-406 242v-500z" horiz-adv-x="1008" />
</font>
</defs>
</svg>